{
  "name": "net.kirgroup.harbour-sail2play",
  "author": {
    "name": "Fabio",
    "email": "fabrix.xm@gmail.com"
  },
  "repository": {
    "type": "GIT",
    "url": "https://gitlab.com/fabrixxm/harbour-sail2play.git"
  },
  "version": {
    "label": "0.11.0"
  },
  "dependencies": [
    "com.blackgrain.qml.quickdownload@1.0.3"
  ],
  "license": "GPL_3_0"
}